<svg xmlns="http://www.w3.org/2000/svg" viewBox="0 0 1000 1000" width="1000" height="1000">
	<defs>
		<linearGradient id="grd1" gradientUnits="userSpaceOnUse"  x1="500" y1="0" x2="500" y2="1000">
			<stop offset="0" stop-color="#9c0204" stop-opacity="0.5" />
			<stop offset="1" stop-color="#4d1010" stop-opacity="0.27" />
		</linearGradient>
	</defs>
	<style>
		tspan { white-space:pre }
		.shp0 { fill: url(#grd1) } 
	</style>
	<g id="Layer">
		<path id="Layer" class="shp0" d="M0 0L1000 0L1000 1000L0 1000L0 0Z" />
	</g>
</svg>